../Drivers/BH1750/Src/BH1750.c:26:15:BH1750_Init	16	static
../Drivers/BH1750/Src/BH1750.c:40:15:BH1750_Reset	24	static
../Drivers/BH1750/Src/BH1750.c:54:15:BH1750_PowerState	24	static
../Drivers/BH1750/Src/BH1750.c:66:15:BH1750_SetMode	24	static
../Drivers/BH1750/Src/BH1750.c:81:15:BH1750_SetMtreg	32	static
../Drivers/BH1750/Src/BH1750.c:114:15:BH1750_TriggerManualConversion	8	static
../Drivers/BH1750/Src/BH1750.c:126:15:BH1750_ReadLight	32	static
