../Core/Src/main.c:156:5:__io_putchar	16	static
../Core/Src/main.c:168:6:HAL_UART_RxCpltCallback	24	static
../Core/Src/main.c:282:6:HAL_GPIO_EXTI_Callback	16	static
../Core/Src/main.c:307:5:main	16	static
../Core/Src/main.c:466:6:SystemClock_Config	96	static
../Core/Src/main.c:516:13:MX_ADC1_Init	72	static
../Core/Src/main.c:597:13:MX_CRC_Init	8	static
../Core/Src/main.c:631:13:MX_I2C2_Init	8	static
../Core/Src/main.c:679:13:MX_TIM1_Init	40	static
../Core/Src/main.c:726:13:MX_TIM3_Init	64	static
../Core/Src/main.c:785:13:MX_TIM6_Init	24	static
../Core/Src/main.c:823:13:MX_TIM15_Init	40	static
../Core/Src/main.c:869:13:MX_USART2_UART_Init	8	static
../Core/Src/main.c:902:13:MX_DMA_Init	16	static
../Core/Src/main.c:920:13:MX_GPIO_Init	48	static
../Core/Src/main.c:1008:6:Error_Handler	4	static,ignoring_inline_asm
